<svg width="18" height="10" viewBox="0 0 18 10" fill="none" xmlns="http://www.w3.org/2000/svg">
<path d="M17.7054 4.22568L14.3237 0.244013C14.1213 0.00575645 13.817 -0.0655052 13.5525 0.0634481C13.2881 0.192401 13.1157 0.496183 13.1156 0.83318V3.35651C13.1156 3.47157 13.0364 3.56485 12.9387 3.56485H1.98827C1.40195 3.56485 0.926636 4.12449 0.926636 4.81485C0.926636 5.5052 1.40195 6.06485 1.98827 6.06485H12.9387C13.0364 6.06485 13.1156 6.15812 13.1156 6.27318V8.79651C13.1157 9.13351 13.2881 9.43729 13.5525 9.56624C13.817 9.6952 14.1213 9.62394 14.3237 9.38568L17.7054 5.40401C17.9817 5.0786 17.9817 4.5511 17.7054 4.22568Z" fill="white"/>
</svg>
